{
    "border": "pixel",
    "floating": "auto_off",
    "layout": "tabbed",
    "percent": null,
    "type": "con",
    "nodes": [
        {
            "name": "Inbox - kauraare@gmail.com - Gmail",
            "swallows": [
               {
                "class": "^Chromium$",
                "instance": "^mail\\.google\\.com$"
               }
            ],
            "type": "con"
        },
        {
            "name": "Google Calendar - November 2018",
            "swallows": [
               {
                "class": "^Chromium$",
                "instance": "^calendar\\.google\\.com$"
               }
            ],
            "type": "con"
        },
        {
            "name": "Element",
            "swallows": [
               {
                "class": "^Element$",
                "instance": "^element$"
               }
            ],
            "type": "con"
        },
        {
            "name": "Messenger",
            "swallows": [
               {
                "class": "^Chromium$",
                "instance": "^messenger\\.com"
               }
            ],
            "type": "con"
        },
        {
            "name": "Signal",
            "swallows": [
               {
                "class": "^Signal$",
                "instance": "^signal$"
               }
            ],
            "type": "con"
        },
        {
            "name": "Slack",
            "swallows": [
               {
                "class": "^Chromium$",
                "instance": "^web\\.skype\\.com$"
               }
            ],
            "type": "con"
        },
        {
            "name": "Discord",
            "swallows": [
               {
                "class": "^Chromium$",
                "instance": "^discord\\.com__app$"
               }
            ],
            "type": "con"
        }

    ]
}
